EESchema Schematic File Version 2
LIBS:power
LIBS:device
LIBS:transistors
LIBS:conn
LIBS:linear
LIBS:regul
LIBS:74xx
LIBS:cmos4000
LIBS:adc-dac
LIBS:memory
LIBS:xilinx
LIBS:microcontrollers
LIBS:dsp
LIBS:microchip
LIBS:analog_switches
LIBS:motorola
LIBS:texas
LIBS:intel
LIBS:audio
LIBS:interface
LIBS:digital-audio
LIBS:philips
LIBS:display
LIBS:cypress
LIBS:siliconi
LIBS:opto
LIBS:atmel
LIBS:contrib
LIBS:valves
LIBS:Transmetteur_FM-cache
EELAYER 25 0
EELAYER END
$Descr A4 11693 8268
encoding utf-8
Sheet 1 1
Title "Emetteur FM"
Date ""
Rev "0.0"
Comp "Glitchlab"
Comment1 "https://framagit.org/Glitchlab/transmetteur-fm"
Comment2 ""
Comment3 ""
Comment4 ""
$EndDescr
$Comp
L Audio-Jack-2 J1
U 1 1 5A92D550
P 1750 1200
F 0 "J1" H 1400 1100 50  0000 L CNB
F 1 "Audio IN (mono)" H 1200 1000 50  0000 L CNN
F 2 "" H 2000 1200 50  0001 C CNN
F 3 "" H 2000 1200 50  0001 C CNN
	1    1750 1200
	1    0    0    -1  
$EndComp
$Comp
L CP C1
U 1 1 5A92D595
P 2250 1200
F 0 "C1" V 1950 1150 50  0000 L CNB
F 1 "1-33µF" V 2050 1150 50  0000 L CNN
F 2 "" H 2288 1050 50  0001 C CNN
F 3 "" H 2250 1200 50  0001 C CNN
	1    2250 1200
	0    1    1    0   
$EndComp
$Comp
L R R1
U 1 1 5A92D600
P 2600 1550
F 0 "R1" H 2300 1600 50  0000 L CNB
F 1 "10kΩ" H 2300 1500 50  0000 L CNN
F 2 "" V 2530 1550 50  0001 C CNN
F 3 "" H 2600 1550 50  0001 C CNN
	1    2600 1550
	1    0    0    -1  
$EndComp
$Comp
L C C2
U 1 1 5A92D636
P 2850 1550
F 0 "C2" H 3000 1500 50  0000 L CNB
F 1 "0.01µF" H 2900 1400 50  0000 L CNN
F 2 "" H 2888 1400 50  0001 C CNN
F 3 "" H 2850 1550 50  0001 C CNN
	1    2850 1550
	1    0    0    -1  
$EndComp
$Comp
L R R2
U 1 1 5A92D71E
P 3500 1200
F 0 "R2" V 3650 1100 50  0000 L CNB
F 1 "27KΩ" V 3750 1100 50  0000 L CNN
F 2 "" V 3430 1200 50  0001 C CNN
F 3 "" H 3500 1200 50  0001 C CNN
	1    3500 1200
	0    1    1    0   
$EndComp
$Comp
L C C3
U 1 1 5A92D780
P 3800 1550
F 0 "C3" H 3950 1650 50  0000 L CNB
F 1 "0.01µF" H 3950 1550 50  0000 L CNN
F 2 "" H 3838 1400 50  0001 C CNN
F 3 "" H 3800 1550 50  0001 C CNN
	1    3800 1550
	1    0    0    -1  
$EndComp
$Comp
L L L1
U 1 1 5A92D7D3
P 4150 1200
F 0 "L1" V 4250 1200 50  0000 L CNB
F 1 "L" V 4225 1200 50  0001 C CNN
F 2 "" H 4150 1200 50  0001 C CNN
F 3 "" H 4150 1200 50  0001 C CNN
	1    4150 1200
	0    -1   -1   0   
$EndComp
$Comp
L C C5
U 1 1 5A92D85C
P 5150 1200
F 0 "C5" V 4850 1150 50  0000 L CNB
F 1 "10pF" V 4950 1150 50  0000 L CNN
F 2 "" H 5188 1050 50  0001 C CNN
F 3 "" H 5150 1200 50  0001 C CNN
	1    5150 1200
	0    1    1    0   
$EndComp
$Comp
L C C4
U 1 1 5A92D8B9
P 4800 1550
F 0 "C4" H 4600 1500 50  0000 L CNB
F 1 " 10pF" H 4450 1600 50  0000 L CNN
F 2 "" H 4838 1400 50  0001 C CNN
F 3 "" H 4800 1550 50  0001 C CNN
	1    4800 1550
	-1   0    0    1   
$EndComp
$Comp
L Conn_01x02_Male J2
U 1 1 5A92D913
P 5900 1300
F 0 "J2" H 5750 1300 50  0000 L CNB
F 1 "RF out to antenna (optionnal)" H 4850 1400 50  0000 L CNN
F 2 "" H 5900 1300 50  0001 C CNN
F 3 "" H 5900 1300 50  0001 C CNN
	1    5900 1300
	-1   0    0    1   
$EndComp
$Comp
L R R3
U 1 1 5A92DA74
P 5500 2650
F 0 "R3" H 5750 2600 50  0000 C CNB
F 1 "470Ω" H 5600 2700 50  0000 L CNN
F 2 "" V 5430 2650 50  0001 C CNN
F 3 "" H 5500 2650 50  0001 C CNN
	1    5500 2650
	-1   0    0    1   
$EndComp
$Comp
L 2N3904 Q1
U 1 1 5A92DB2F
P 4400 2100
F 0 "Q1" H 4650 2100 50  0000 L CNB
F 1 "2N3904" H 4650 2000 50  0000 L CNN
F 2 "TO_SOT_Packages_THT:TO-92_Molded_Narrow" H 4600 2025 50  0001 L CIN
F 3 "" H 4400 2100 50  0001 L CNN
	1    4400 2100
	1    0    0    -1  
$EndComp
$Comp
L GND #PWR3
U 1 1 5A92DBE0
P 1950 1500
F 0 "#PWR3" H 1950 1250 50  0001 C CNN
F 1 "GND" H 1950 1350 50  0001 C CNN
F 2 "" H 1950 1500 50  0001 C CNN
F 3 "" H 1950 1500 50  0001 C CNN
	1    1950 1500
	1    0    0    -1  
$EndComp
$Comp
L PWR_FLAG #FLG1
U 1 1 5A92DDBB
P 1300 2600
F 0 "#FLG1" H 1300 2675 50  0001 C CNN
F 1 "PWR_FLAG" H 1300 2750 50  0000 C CNN
F 2 "" H 1300 2600 50  0001 C CNN
F 3 "" H 1300 2600 50  0001 C CNN
	1    1300 2600
	1    0    0    -1  
$EndComp
Wire Wire Line
	2400 1200 3350 1200
Wire Wire Line
	2600 1200 2600 1400
Connection ~ 2600 1200
Wire Wire Line
	2850 1400 2850 1200
Connection ~ 2850 1200
Wire Wire Line
	3650 1200 4000 1200
Wire Wire Line
	3800 950  3800 1400
Connection ~ 3800 1200
Wire Wire Line
	4300 1200 5000 1200
Wire Wire Line
	4500 1200 4500 1900
Connection ~ 4500 1200
Wire Wire Line
	4800 1400 4800 1200
Connection ~ 4800 1200
Wire Wire Line
	5300 1200 5700 1200
Wire Wire Line
	5500 1200 5500 2500
Connection ~ 5500 1200
Connection ~ 3200 1200
Wire Wire Line
	4500 2300 5500 2300
Connection ~ 5500 2300
$Comp
L GND #PWR4
U 1 1 5A937873
P 2600 1800
F 0 "#PWR4" H 2600 1550 50  0001 C CNN
F 1 "GND" H 2600 1650 50  0001 C CNN
F 2 "" H 2600 1800 50  0001 C CNN
F 3 "" H 2600 1800 50  0001 C CNN
	1    2600 1800
	1    0    0    -1  
$EndComp
$Comp
L GND #PWR5
U 1 1 5A937A93
P 2850 1800
F 0 "#PWR5" H 2850 1550 50  0001 C CNN
F 1 "GND" H 2850 1650 50  0001 C CNN
F 2 "" H 2850 1800 50  0001 C CNN
F 3 "" H 2850 1800 50  0001 C CNN
	1    2850 1800
	1    0    0    -1  
$EndComp
$Comp
L GND #PWR7
U 1 1 5A937B88
P 3800 1800
F 0 "#PWR7" H 3800 1550 50  0001 C CNN
F 1 "GND" H 3800 1650 50  0001 C CNN
F 2 "" H 3800 1800 50  0001 C CNN
F 3 "" H 3800 1800 50  0001 C CNN
	1    3800 1800
	1    0    0    -1  
$EndComp
Wire Wire Line
	3800 1800 3800 1700
$Comp
L GND #PWR8
U 1 1 5A938DE9
P 4800 1800
F 0 "#PWR8" H 4800 1550 50  0001 C CNN
F 1 "GND" H 4800 1650 50  0001 C CNN
F 2 "" H 4800 1800 50  0001 C CNN
F 3 "" H 4800 1800 50  0001 C CNN
	1    4800 1800
	1    0    0    -1  
$EndComp
Wire Wire Line
	4800 1800 4800 1700
$Comp
L GND #PWR10
U 1 1 5A9392EA
P 5700 1400
F 0 "#PWR10" H 5700 1150 50  0001 C CNN
F 1 "GND" H 5700 1250 50  0001 C CNN
F 2 "" H 5700 1400 50  0001 C CNN
F 3 "" H 5700 1400 50  0001 C CNN
	1    5700 1400
	1    0    0    -1  
$EndComp
Wire Wire Line
	5700 1400 5700 1300
Wire Wire Line
	2600 1700 2600 1800
Wire Wire Line
	2850 1700 2850 1800
Wire Wire Line
	2100 1200 1950 1200
Wire Wire Line
	1950 1300 1950 1500
$Comp
L GND #PWR6
U 1 1 5A93AAC2
P 3400 950
F 0 "#PWR6" H 3400 700 50  0001 C CNN
F 1 "GND" H 3400 800 50  0001 C CNN
F 2 "" H 3400 950 50  0001 C CNN
F 3 "" H 3400 950 50  0001 C CNN
	1    3400 950 
	0    1    1    0   
$EndComp
Wire Wire Line
	3400 950  3500 950 
$Comp
L GND #PWR1
U 1 1 5A93B49E
P 1300 2600
F 0 "#PWR1" H 1300 2350 50  0001 C CNN
F 1 "GND" H 1300 2450 50  0000 C CNN
F 2 "" H 1300 2600 50  0001 C CNN
F 3 "" H 1300 2600 50  0001 C CNN
	1    1300 2600
	1    0    0    -1  
$EndComp
$Comp
L GND #PWR9
U 1 1 5A93B6AF
P 5500 2900
F 0 "#PWR9" H 5500 2650 50  0001 C CNN
F 1 "GND" H 5500 2750 50  0001 C CNN
F 2 "" H 5500 2900 50  0001 C CNN
F 3 "" H 5500 2900 50  0001 C CNN
	1    5500 2900
	1    0    0    -1  
$EndComp
Wire Wire Line
	5500 2900 5500 2800
$Comp
L VCC #PWR2
U 1 1 5A93B4D0
P 1700 2600
F 0 "#PWR2" H 1700 2450 50  0001 C CNN
F 1 "VCC" H 1700 2750 50  0000 C CNN
F 2 "" H 1700 2600 50  0001 C CNN
F 3 "" H 1700 2600 50  0001 C CNN
	1    1700 2600
	-1   0    0    1   
$EndComp
$Comp
L PWR_FLAG #FLG2
U 1 1 5A92DDF4
P 1700 2600
F 0 "#FLG2" H 1700 2675 50  0001 C CNN
F 1 "PWR_FLAG" H 1700 2750 50  0000 C CNN
F 2 "" H 1700 2600 50  0001 C CNN
F 3 "" H 1700 2600 50  0001 C CNN
	1    1700 2600
	1    0    0    -1  
$EndComp
$Comp
L Battery_Cell B1
U 1 1 5A93C92C
P 3600 950
F 0 "B1" V 3350 950 50  0000 L CNB
F 1 "9V" V 3450 950 50  0000 L CNN
F 2 "" V 3600 1010 50  0001 C CNN
F 3 "" V 3600 1010 50  0001 C CNN
	1    3600 950 
	0    1    1    0   
$EndComp
Wire Wire Line
	3200 2100 3200 1200
Wire Wire Line
	4200 2100 3200 2100
$EndSCHEMATC
